{
  "status": true,
  "detail": "Success",
  "data": [
    {
      "id": 79,
      "account": "9740792218",
      "fees_payer": "Receiver",
      "amount": "800.00",
      "amount_currency": "NGN",
      "code": "i9ssq4rpi87a",
      "is_active": true,
      "name": "subscription Test",
      "fixed_amount": true,
      "redirect_url": "",
      "description": "Subscription Test",
      "extra_info": [],
      "notify": "",
      "interval": "Hourly",
      "background_image": null,
      "donation_website": "",
      "donation_phone": "",
      "payment_type": "Subscription",
      "number_of_charges": null,
      "completed_charges": 0,
      "created_at": "2022-08-10T12:53:34.646614+01:00",
      "updated_at": "2022-08-10T12:54:11.070513+01:00"
    },
    {
      "id": 78,
      "account": "9740792218",
      "fees_payer": "Receiver",
      "amount": "1.00",
      "amount_currency": "EUR",
      "code": "9gvm1ng3lyrg",
      "is_active": true,
      "name": "Testing link",
      "fixed_amount": true,
      "redirect_url": "",
      "description": "testing link",
      "extra_info": [],
      "notify": "",
      "interval": "",
      "background_image": null,
      "donation_website": "",
      "donation_phone": "",
      "payment_type": "Single",
      "number_of_charges": null,
      "completed_charges": 0,
      "created_at": "2022-08-10T12:15:57.973646+01:00",
      "updated_at": "2022-08-10T12:15:57.973701+01:00"
    },
    {
      "id": 29,
      "account": "9740792218",
      "fees_payer": "Receiver",
      "amount": "100.00",
      "amount_currency": "USD",
      "code": "639alyevj6pn",
      "is_active": true,
      "name": "Yekinni Ajibola",
      "fixed_amount": false,
      "redirect_url": null,
      "description": "Sd",
      "extra_info": [],
      "notify": null,
      "interval": "Monthly",
      "background_image": null,
      "donation_website": "",
      "donation_phone": "",
      "payment_type": "Single",
      "number_of_charges": 0,
      "completed_charges": 0,
      "created_at": "2022-06-16T08:34:35.231569+01:00",
      "updated_at": "2022-08-10T14:51:20.368412+01:00"
    }
  ]
}
