{
  "status": true,
  "detail": "Success",
  "data": {
    "id": 79,
    "account": "9740792218",
    "fees_payer": "Receiver",
    "amount": "800.00",
    "amount_currency": "NGN",
    "code": "i9ssq4rpi87a",
    "is_active": true,
    "name": "subscription Test",
    "fixed_amount": true,
    "redirect_url": "",
    "description": "Subscription Test",
    "extra_info": [],
    "notify": "",
    "interval": "Hourly",
    "background_image": null,
    "donation_website": "",
    "donation_phone": "",
    "payment_type": "Single",
    "number_of_charges": null,
    "completed_charges": 0,
    "created_at": "2022-08-10T12:53:34.646614+01:00",
    "updated_at": "2022-08-10T12:54:11.070513+01:00",
    "transactions": []
  }
}
